Ordonner les données
…
---

## pivot_longer()

```r
table1 %>% 
  pivot_longer(`1961`:`2011`, names_to = "year", values_to = "inflation")
```

```
## # A tibble: 13,770 x 3
##    `Inflation, GDP deflator (annual %)` year  inflation
##    <chr>                                <chr>     <dbl>
##  1 Abkhazia                             1961         NA
##  2 Abkhazia                             1962         NA
##  3 Abkhazia                             1963         NA
##  4 Abkhazia                             1964         NA
##  5 Abkhazia                             1965         NA
##  6 Abkhazia                             1966         NA
##  7 Abkhazia                             1967         NA
##  8 Abkhazia                             1968         NA
##  9 Abkhazia                             1969         NA
## 10 Abkhazia                             1970         NA
## # … with 13,760 more rows
```
…
